<?xml version="1.0" encoding="UTF-8"?>
<session version="1.0">
<refactoring comment="Delete resource &apos;BOT2-JPA-V10H11n&apos;" deleteContents="true" description="Delete resource &apos;BOT2-JPA-V10H11n&apos;" element1="/BOT2-JPA-V10H11n" flags="7" id="org.eclipse.ltk.core.refactoring.delete.resources" resources="1" stamp="1564781285308"/>
</session>